{
	"credit": "Made with Blockbench",
	"texture_size": [64, 64],
	"textures": {
		"0": "demons:block/demons_driver",
		"particle": "demons:block/demons_driver"
	},
	"elements": [
		{
			"from": [7, 0.5, 5],
			"to": [9, 2.5, 5.5],
			"rotation": {"angle": 0, "axis": "y", "origin": [8, 1.5, 5.5]},
			"faces": {
				"north": {"uv": [7.75, 7.75, 16, 16], "texture": "#0"},
				"east": {"uv": [7.75, 7.75, 16, 16], "texture": "#0"},
				"south": {"uv": [7.75, 7.75, 16, 16], "texture": "#0"},
				"west": {"uv": [7.75, 7.75, 16, 16], "texture": "#0"},
				"up": {"uv": [7.75, 7.75, 16, 16], "texture": "#0"},
				"down": {"uv": [7.75, 7.75, 16, 16], "texture": "#0"}
			}
		},
		{
			"from": [6.5, 0.5, 4.9375],
			"to": [7, 2.5, 5.5],
			"faces": {
				"north": {"uv": [12.5, 1.5, 12.75, 2.5], "texture": "#0"},
				"east": {"uv": [12.5, 1.5, 12.75, 2.5], "texture": "#0"},
				"south": {"uv": [12.5, 1.5, 12.75, 2.5], "texture": "#0"},
				"west": {"uv": [12.5, 1.5, 12.75, 2.5], "texture": "#0"},
				"up": {"uv": [12.5, 1.5, 12.75, 2.5], "texture": "#0"},
				"down": {"uv": [12.5, 1.5, 12.75, 2.5], "texture": "#0"}
			}
		},
		{
			"from": [6.75, 2.5, 5],
			"to": [7, 2.75, 5.5],
			"faces": {
				"north": {"uv": [12.5, 1.5, 12.625, 1.625], "texture": "#0"},
				"east": {"uv": [12.5, 1.5, 12.625, 1.625], "texture": "#0"},
				"south": {"uv": [12.5, 1.5, 12.625, 1.625], "texture": "#0"},
				"west": {"uv": [12.5, 1.5, 12.625, 1.625], "texture": "#0"},
				"up": {"uv": [12.5, 1.5, 12.625, 1.625], "texture": "#0"},
				"down": {"uv": [12.5, 1.5, 12.625, 1.625], "texture": "#0"}
			}
		},
		{
			"from": [6.75, 0.25, 5],
			"to": [7, 0.5, 5.5],
			"faces": {
				"north": {"uv": [12.5, 1.5, 12.625, 1.625], "texture": "#0"},
				"east": {"uv": [12.5, 1.5, 12.625, 1.625], "texture": "#0"},
				"south": {"uv": [12.5, 1.5, 12.625, 1.625], "texture": "#0"},
				"west": {"uv": [12.5, 1.5, 12.625, 1.625], "texture": "#0"},
				"up": {"uv": [12.5, 1.5, 12.625, 1.625], "texture": "#0"},
				"down": {"uv": [12.5, 1.5, 12.625, 1.625], "texture": "#0"}
			}
		},
		{
			"from": [9, 0.25, 5],
			"to": [9.25, 0.5, 5.5],
			"faces": {
				"north": {"uv": [12.5, 1.5, 12.625, 1.625], "texture": "#0"},
				"east": {"uv": [12.5, 1.5, 12.625, 1.625], "texture": "#0"},
				"south": {"uv": [12.5, 1.5, 12.625, 1.625], "texture": "#0"},
				"west": {"uv": [12.5, 1.5, 12.625, 1.625], "texture": "#0"},
				"up": {"uv": [12.5, 1.5, 12.625, 1.625], "texture": "#0"},
				"down": {"uv": [12.5, 1.5, 12.625, 1.625], "texture": "#0"}
			}
		},
		{
			"from": [9, 2.5, 5],
			"to": [9.25, 2.75, 5.5],
			"faces": {
				"north": {"uv": [12.5, 1.5, 12.625, 1.625], "texture": "#0"},
				"east": {"uv": [12.5, 1.5, 12.625, 1.625], "texture": "#0"},
				"south": {"uv": [12.5, 1.5, 12.625, 1.625], "texture": "#0"},
				"west": {"uv": [12.5, 1.5, 12.625, 1.625], "texture": "#0"},
				"up": {"uv": [12.5, 1.5, 12.625, 1.625], "texture": "#0"},
				"down": {"uv": [12.5, 1.5, 12.625, 1.625], "texture": "#0"}
			}
		},
		{
			"from": [9, 0.5, 4.9375],
			"to": [9.5, 2.5, 5.5],
			"faces": {
				"north": {"uv": [12.5, 1.5, 12.75, 2.5], "texture": "#0"},
				"east": {"uv": [12.5, 1.5, 12.75, 2.5], "texture": "#0"},
				"south": {"uv": [12.5, 1.5, 12.75, 2.5], "texture": "#0"},
				"west": {"uv": [12.5, 1.5, 12.75, 2.5], "texture": "#0"},
				"up": {"uv": [12.5, 1.5, 12.75, 2.5], "texture": "#0"},
				"down": {"uv": [12.5, 1.5, 12.75, 2.5], "texture": "#0"}
			}
		},
		{
			"from": [7, 2.5, 4.9375],
			"to": [9, 3, 5.5],
			"faces": {
				"north": {"uv": [12.5, 1.5, 13.5, 1.75], "texture": "#0"},
				"east": {"uv": [12.5, 1.5, 13.5, 1.75], "texture": "#0"},
				"south": {"uv": [12.5, 1.5, 13.5, 1.75], "texture": "#0"},
				"west": {"uv": [12.5, 1.5, 13.5, 1.75], "texture": "#0"},
				"up": {"uv": [12.5, 1.5, 13.5, 1.75], "texture": "#0"},
				"down": {"uv": [12.5, 1.5, 13.5, 1.75], "texture": "#0"}
			}
		},
		{
			"from": [7, 0, 4.9375],
			"to": [9, 0.5, 5.5],
			"faces": {
				"north": {"uv": [12.5, 1.5, 13.5, 1.75], "texture": "#0"},
				"east": {"uv": [12.5, 1.5, 13.5, 1.75], "texture": "#0"},
				"south": {"uv": [12.5, 1.5, 13.5, 1.75], "texture": "#0"},
				"west": {"uv": [12.5, 1.5, 13.5, 1.75], "texture": "#0"},
				"up": {"uv": [12.5, 1.5, 13.5, 1.75], "texture": "#0"},
				"down": {"uv": [12.5, 1.5, 13.5, 1.75], "texture": "#0"}
			}
		},
		{
			"from": [6.75, 0, 5.5],
			"to": [9.25, 2.75, 7.25],
			"faces": {
				"north": {"uv": [7.75, 4.25, 16, 7.625], "texture": "#0"},
				"east": {"uv": [7.75, 4.25, 16, 7.625], "texture": "#0"},
				"south": {"uv": [7.75, 4.25, 16, 7.625], "texture": "#0"},
				"west": {"uv": [7.75, 4.25, 16, 7.625], "texture": "#0"},
				"up": {"uv": [7.75, 4.25, 16, 7.625], "texture": "#0"},
				"down": {"uv": [7.75, 4.25, 16, 7.625], "texture": "#0"}
			}
		},
		{
			"from": [9.25, 0, 6.5],
			"to": [10, 2.75, 7.25],
			"faces": {
				"north": {"uv": [7.75, 4.25, 15.625, 7.625], "texture": "#0"},
				"east": {"uv": [7.75, 4.25, 15.625, 7.625], "texture": "#0"},
				"south": {"uv": [7.75, 4.25, 15.625, 7.625], "texture": "#0"},
				"west": {"uv": [7.75, 4.25, 15.625, 7.625], "texture": "#0"},
				"up": {"uv": [7.75, 4.25, 15.625, 7.625], "texture": "#0"},
				"down": {"uv": [7.75, 4.25, 15.625, 7.625], "texture": "#0"}
			}
		},
		{
			"from": [10, 0.625, 6.5],
			"to": [10.3125, 2.125, 7.25],
			"faces": {
				"north": {"uv": [7.75, 4.25, 15.625, 7], "texture": "#0"},
				"east": {"uv": [7.75, 4.25, 15.625, 7], "texture": "#0"},
				"south": {"uv": [7.75, 4.25, 15.625, 7], "texture": "#0"},
				"west": {"uv": [7.75, 4.25, 15.625, 7], "texture": "#0"},
				"up": {"uv": [7.75, 4.25, 15.625, 7], "texture": "#0"},
				"down": {"uv": [7.75, 4.25, 15.625, 7], "texture": "#0"}
			}
		},
		{
			"from": [5.6875, 0.625, 6.5],
			"to": [6, 2.125, 7.25],
			"faces": {
				"north": {"uv": [7.75, 4.25, 15.625, 7], "texture": "#0"},
				"east": {"uv": [7.75, 4.25, 15.625, 7], "texture": "#0"},
				"south": {"uv": [7.75, 4.25, 15.625, 7], "texture": "#0"},
				"west": {"uv": [7.75, 4.25, 15.625, 7], "texture": "#0"},
				"up": {"uv": [7.75, 4.25, 15.625, 7], "texture": "#0"},
				"down": {"uv": [7.75, 4.25, 15.625, 7], "texture": "#0"}
			}
		},
		{
			"from": [6, 0, 6.5],
			"to": [6.75, 2.75, 7.25],
			"faces": {
				"north": {"uv": [7.75, 4.25, 15.625, 7.625], "texture": "#0"},
				"east": {"uv": [7.75, 4.25, 15.625, 7.625], "texture": "#0"},
				"south": {"uv": [7.75, 4.25, 15.625, 7.625], "texture": "#0"},
				"west": {"uv": [7.75, 4.25, 15.625, 7.625], "texture": "#0"},
				"up": {"uv": [7.75, 4.25, 15.625, 7.625], "texture": "#0"},
				"down": {"uv": [7.75, 4.25, 15.625, 7.625], "texture": "#0"}
			}
		},
		{
			"from": [5.6875, 0.875, 5.5],
			"to": [6.75, 1.875, 6.5],
			"faces": {
				"north": {"uv": [7.75, 4.25, 15.75, 6.75], "texture": "#0"},
				"east": {"uv": [7.75, 4.25, 15.75, 6.75], "texture": "#0"},
				"south": {"uv": [7.75, 4.25, 15.75, 6.75], "texture": "#0"},
				"west": {"uv": [7.75, 4.25, 15.75, 6.75], "texture": "#0"},
				"up": {"uv": [7.75, 4.25, 15.75, 6.75], "texture": "#0"},
				"down": {"uv": [7.75, 4.25, 15.75, 6.75], "texture": "#0"}
			}
		},
		{
			"from": [9.25, 0.875, 5.5],
			"to": [10.3125, 1.875, 6.5],
			"faces": {
				"north": {"uv": [7.75, 4.25, 15.75, 6.75], "texture": "#0"},
				"east": {"uv": [7.75, 4.25, 15.75, 6.75], "texture": "#0"},
				"south": {"uv": [7.75, 4.25, 15.75, 6.75], "texture": "#0"},
				"west": {"uv": [7.75, 4.25, 15.75, 6.75], "texture": "#0"},
				"up": {"uv": [7.75, 4.25, 15.75, 6.75], "texture": "#0"},
				"down": {"uv": [7.75, 4.25, 15.75, 6.75], "texture": "#0"}
			}
		},
		{
			"from": [6, 2.5, 5.5],
			"to": [6.75, 2.75, 6.5],
			"faces": {
				"north": {"uv": [0, 0, 3.875, 0.875], "texture": "#0"},
				"east": {"uv": [0, 0, 3.875, 0.875], "texture": "#0"},
				"south": {"uv": [0, 0, 3.875, 0.875], "texture": "#0"},
				"west": {"uv": [0, 0, 3.875, 0.875], "texture": "#0"},
				"up": {"uv": [0, 0, 3.875, 0.875], "texture": "#0"},
				"down": {"uv": [0, 0, 3.875, 0.875], "texture": "#0"}
			}
		},
		{
			"from": [5.6875, 1.875, 5.5],
			"to": [6.75, 2.125, 6.5],
			"faces": {
				"north": {"uv": [0, 0, 4.03125, 0.875], "texture": "#0"},
				"east": {"uv": [0, 0, 4.03125, 0.875], "texture": "#0"},
				"south": {"uv": [0, 0, 4.03125, 0.875], "texture": "#0"},
				"west": {"uv": [0, 0, 4.03125, 0.875], "texture": "#0"},
				"up": {"uv": [0, 0, 4.03125, 0.875], "texture": "#0"},
				"down": {"uv": [0, 0, 4.03125, 0.875], "texture": "#0"}
			}
		},
		{
			"from": [5.6875, 0.625, 5.5],
			"to": [6.75, 0.875, 6.5],
			"faces": {
				"north": {"uv": [0, 0, 4.03125, 0.875], "texture": "#0"},
				"east": {"uv": [0, 0, 4.03125, 0.875], "texture": "#0"},
				"south": {"uv": [0, 0, 4.03125, 0.875], "texture": "#0"},
				"west": {"uv": [0, 0, 4.03125, 0.875], "texture": "#0"},
				"up": {"uv": [0, 0, 4.03125, 0.875], "texture": "#0"},
				"down": {"uv": [0, 0, 4.03125, 0.875], "texture": "#0"}
			}
		},
		{
			"from": [9.25, 0.625, 5.5],
			"to": [10.3125, 0.875, 6.5],
			"faces": {
				"north": {"uv": [0, 0, 4.03125, 0.875], "texture": "#0"},
				"east": {"uv": [0, 0, 4.03125, 0.875], "texture": "#0"},
				"south": {"uv": [0, 0, 4.03125, 0.875], "texture": "#0"},
				"west": {"uv": [0, 0, 4.03125, 0.875], "texture": "#0"},
				"up": {"uv": [0, 0, 4.03125, 0.875], "texture": "#0"},
				"down": {"uv": [0, 0, 4.03125, 0.875], "texture": "#0"}
			}
		},
		{
			"from": [9.25, 1.875, 5.5],
			"to": [10.3125, 2.125, 6.5],
			"faces": {
				"north": {"uv": [0, 0, 4.03125, 0.875], "texture": "#0"},
				"east": {"uv": [0, 0, 4.03125, 0.875], "texture": "#0"},
				"south": {"uv": [0, 0, 4.03125, 0.875], "texture": "#0"},
				"west": {"uv": [0, 0, 4.03125, 0.875], "texture": "#0"},
				"up": {"uv": [0, 0, 4.03125, 0.875], "texture": "#0"},
				"down": {"uv": [0, 0, 4.03125, 0.875], "texture": "#0"}
			}
		},
		{
			"from": [6, 0.25, 5.5],
			"to": [6.75, 0.375, 6.5],
			"faces": {
				"north": {"uv": [7.75, 4, 16, 7.5625], "texture": "#0"},
				"east": {"uv": [7.75, 4, 16, 7.5625], "texture": "#0"},
				"south": {"uv": [7.75, 4, 16, 7.5625], "texture": "#0"},
				"west": {"uv": [7.75, 4, 16, 7.5625], "texture": "#0"},
				"up": {"uv": [7.75, 4, 16, 7.5625], "texture": "#0"},
				"down": {"uv": [7.75, 4, 16, 7.5625], "texture": "#0"}
			}
		},
		{
			"from": [6, 2.375, 5.5],
			"to": [6.75, 2.5, 6.5],
			"faces": {
				"north": {"uv": [7.75, 4, 16, 7.5625], "texture": "#0"},
				"east": {"uv": [7.75, 4, 16, 7.5625], "texture": "#0"},
				"south": {"uv": [7.75, 4, 16, 7.5625], "texture": "#0"},
				"west": {"uv": [7.75, 4, 16, 7.5625], "texture": "#0"},
				"up": {"uv": [7.75, 4, 16, 7.5625], "texture": "#0"},
				"down": {"uv": [7.75, 4, 16, 7.5625], "texture": "#0"}
			}
		},
		{
			"from": [5.875, 2.125, 5.5],
			"to": [6.75, 2.25, 6.5],
			"faces": {
				"north": {"uv": [7.75, 4, 16, 7.5625], "texture": "#0"},
				"east": {"uv": [7.75, 4, 16, 7.5625], "texture": "#0"},
				"south": {"uv": [7.75, 4, 16, 7.5625], "texture": "#0"},
				"west": {"uv": [7.75, 4, 16, 7.5625], "texture": "#0"},
				"up": {"uv": [7.75, 4, 16, 7.5625], "texture": "#0"},
				"down": {"uv": [7.75, 4, 16, 7.5625], "texture": "#0"}
			}
		},
		{
			"from": [9.25, 2.125, 5.5],
			"to": [10.125, 2.25, 6.5],
			"faces": {
				"north": {"uv": [7.75, 4, 16, 7.5625], "texture": "#0"},
				"east": {"uv": [7.75, 4, 16, 7.5625], "texture": "#0"},
				"south": {"uv": [7.75, 4, 16, 7.5625], "texture": "#0"},
				"west": {"uv": [7.75, 4, 16, 7.5625], "texture": "#0"},
				"up": {"uv": [7.75, 4, 16, 7.5625], "texture": "#0"},
				"down": {"uv": [7.75, 4, 16, 7.5625], "texture": "#0"}
			}
		},
		{
			"from": [9.25, 0.5, 5.5],
			"to": [10.125, 0.625, 6.5],
			"faces": {
				"north": {"uv": [7.75, 4, 16, 7.5625], "texture": "#0"},
				"east": {"uv": [7.75, 4, 16, 7.5625], "texture": "#0"},
				"south": {"uv": [7.75, 4, 16, 7.5625], "texture": "#0"},
				"west": {"uv": [7.75, 4, 16, 7.5625], "texture": "#0"},
				"up": {"uv": [7.75, 4, 16, 7.5625], "texture": "#0"},
				"down": {"uv": [7.75, 4, 16, 7.5625], "texture": "#0"}
			}
		},
		{
			"from": [5.875, 0.5, 5.5],
			"to": [6.75, 0.625, 6.5],
			"faces": {
				"north": {"uv": [7.75, 4, 16, 7.5625], "texture": "#0"},
				"east": {"uv": [7.75, 4, 16, 7.5625], "texture": "#0"},
				"south": {"uv": [7.75, 4, 16, 7.5625], "texture": "#0"},
				"west": {"uv": [7.75, 4, 16, 7.5625], "texture": "#0"},
				"up": {"uv": [7.75, 4, 16, 7.5625], "texture": "#0"},
				"down": {"uv": [7.75, 4, 16, 7.5625], "texture": "#0"}
			}
		},
		{
			"from": [9.25, 2.375, 5.5],
			"to": [10, 2.5, 6.5],
			"faces": {
				"north": {"uv": [7.75, 4, 16, 7.5625], "texture": "#0"},
				"east": {"uv": [7.75, 4, 16, 7.5625], "texture": "#0"},
				"south": {"uv": [7.75, 4, 16, 7.5625], "texture": "#0"},
				"west": {"uv": [7.75, 4, 16, 7.5625], "texture": "#0"},
				"up": {"uv": [7.75, 4, 16, 7.5625], "texture": "#0"},
				"down": {"uv": [7.75, 4, 16, 7.5625], "texture": "#0"}
			}
		},
		{
			"from": [9.25, 0.25, 5.5],
			"to": [10, 0.375, 6.5],
			"faces": {
				"north": {"uv": [7.75, 4, 16, 7.5625], "texture": "#0"},
				"east": {"uv": [7.75, 4, 16, 7.5625], "texture": "#0"},
				"south": {"uv": [7.75, 4, 16, 7.5625], "texture": "#0"},
				"west": {"uv": [7.75, 4, 16, 7.5625], "texture": "#0"},
				"up": {"uv": [7.75, 4, 16, 7.5625], "texture": "#0"},
				"down": {"uv": [7.75, 4, 16, 7.5625], "texture": "#0"}
			}
		},
		{
			"from": [6, 0, 5.5],
			"to": [6.75, 0.25, 6.5],
			"faces": {
				"north": {"uv": [0, 0, 3.875, 0.875], "texture": "#0"},
				"east": {"uv": [0, 0, 3.875, 0.875], "texture": "#0"},
				"south": {"uv": [0, 0, 3.875, 0.875], "texture": "#0"},
				"west": {"uv": [0, 0, 3.875, 0.875], "texture": "#0"},
				"up": {"uv": [0, 0, 3.875, 0.875], "texture": "#0"},
				"down": {"uv": [0, 0, 3.875, 0.875], "texture": "#0"}
			}
		},
		{
			"from": [5.875, 0.375, 5.5],
			"to": [6.75, 0.5, 6.5],
			"faces": {
				"north": {"uv": [0, 1.25, 3.9375, 2.3125], "texture": "#0"},
				"east": {"uv": [0, 1.25, 3.9375, 2.3125], "texture": "#0"},
				"south": {"uv": [0, 1.25, 3.9375, 2.3125], "texture": "#0"},
				"west": {"uv": [0, 1.25, 3.9375, 2.3125], "texture": "#0"},
				"up": {"uv": [0, 1.25, 3.9375, 2.3125], "texture": "#0"},
				"down": {"uv": [0, 1.25, 3.9375, 2.3125], "texture": "#0"}
			}
		},
		{
			"from": [5.875, 0.25, 5.5],
			"to": [6, 0.375, 6.5],
			"faces": {
				"north": {"uv": [0, 1.25, 3.5625, 2.3125], "texture": "#0"},
				"east": {"uv": [0, 1.25, 3.5625, 2.3125], "texture": "#0"},
				"south": {"uv": [0, 1.25, 3.5625, 2.3125], "texture": "#0"},
				"west": {"uv": [0, 1.25, 3.5625, 2.3125], "texture": "#0"},
				"up": {"uv": [0, 1.25, 3.5625, 2.3125], "texture": "#0"},
				"down": {"uv": [0, 1.25, 3.5625, 2.3125], "texture": "#0"}
			}
		},
		{
			"from": [5.75, 0.5, 5.5],
			"to": [5.875, 0.625, 6.5],
			"faces": {
				"north": {"uv": [0, 1.25, 3.5625, 2.3125], "texture": "#0"},
				"east": {"uv": [0, 1.25, 3.5625, 2.3125], "texture": "#0"},
				"south": {"uv": [0, 1.25, 3.5625, 2.3125], "texture": "#0"},
				"west": {"uv": [0, 1.25, 3.5625, 2.3125], "texture": "#0"},
				"up": {"uv": [0, 1.25, 3.5625, 2.3125], "texture": "#0"},
				"down": {"uv": [0, 1.25, 3.5625, 2.3125], "texture": "#0"}
			}
		},
		{
			"from": [5.75, 2.125, 5.5],
			"to": [5.875, 2.25, 6.5],
			"faces": {
				"north": {"uv": [0, 1.25, 3.5625, 2.3125], "texture": "#0"},
				"east": {"uv": [0, 1.25, 3.5625, 2.3125], "texture": "#0"},
				"south": {"uv": [0, 1.25, 3.5625, 2.3125], "texture": "#0"},
				"west": {"uv": [0, 1.25, 3.5625, 2.3125], "texture": "#0"},
				"up": {"uv": [0, 1.25, 3.5625, 2.3125], "texture": "#0"},
				"down": {"uv": [0, 1.25, 3.5625, 2.3125], "texture": "#0"}
			}
		},
		{
			"from": [5.875, 2.375, 5.5],
			"to": [6, 2.5, 6.5],
			"faces": {
				"north": {"uv": [0, 1.25, 3.5625, 2.3125], "texture": "#0"},
				"east": {"uv": [0, 1.25, 3.5625, 2.3125], "texture": "#0"},
				"south": {"uv": [0, 1.25, 3.5625, 2.3125], "texture": "#0"},
				"west": {"uv": [0, 1.25, 3.5625, 2.3125], "texture": "#0"},
				"up": {"uv": [0, 1.25, 3.5625, 2.3125], "texture": "#0"},
				"down": {"uv": [0, 1.25, 3.5625, 2.3125], "texture": "#0"}
			}
		},
		{
			"from": [10, 2.375, 5.5],
			"to": [10.125, 2.5, 6.5],
			"faces": {
				"north": {"uv": [0, 1.25, 3.5625, 2.3125], "texture": "#0"},
				"east": {"uv": [0, 1.25, 3.5625, 2.3125], "texture": "#0"},
				"south": {"uv": [0, 1.25, 3.5625, 2.3125], "texture": "#0"},
				"west": {"uv": [0, 1.25, 3.5625, 2.3125], "texture": "#0"},
				"up": {"uv": [0, 1.25, 3.5625, 2.3125], "texture": "#0"},
				"down": {"uv": [0, 1.25, 3.5625, 2.3125], "texture": "#0"}
			}
		},
		{
			"from": [10.125, 2.125, 5.5],
			"to": [10.25, 2.25, 6.5],
			"faces": {
				"north": {"uv": [0, 1.25, 3.5625, 2.3125], "texture": "#0"},
				"east": {"uv": [0, 1.25, 3.5625, 2.3125], "texture": "#0"},
				"south": {"uv": [0, 1.25, 3.5625, 2.3125], "texture": "#0"},
				"west": {"uv": [0, 1.25, 3.5625, 2.3125], "texture": "#0"},
				"up": {"uv": [0, 1.25, 3.5625, 2.3125], "texture": "#0"},
				"down": {"uv": [0, 1.25, 3.5625, 2.3125], "texture": "#0"}
			}
		},
		{
			"from": [10.125, 0.5, 5.5],
			"to": [10.25, 0.625, 6.5],
			"faces": {
				"north": {"uv": [0, 1.25, 3.5625, 2.3125], "texture": "#0"},
				"east": {"uv": [0, 1.25, 3.5625, 2.3125], "texture": "#0"},
				"south": {"uv": [0, 1.25, 3.5625, 2.3125], "texture": "#0"},
				"west": {"uv": [0, 1.25, 3.5625, 2.3125], "texture": "#0"},
				"up": {"uv": [0, 1.25, 3.5625, 2.3125], "texture": "#0"},
				"down": {"uv": [0, 1.25, 3.5625, 2.3125], "texture": "#0"}
			}
		},
		{
			"from": [10, 0.25, 5.5],
			"to": [10.125, 0.375, 6.5],
			"faces": {
				"north": {"uv": [0, 1.25, 3.5625, 2.3125], "texture": "#0"},
				"east": {"uv": [0, 1.25, 3.5625, 2.3125], "texture": "#0"},
				"south": {"uv": [0, 1.25, 3.5625, 2.3125], "texture": "#0"},
				"west": {"uv": [0, 1.25, 3.5625, 2.3125], "texture": "#0"},
				"up": {"uv": [0, 1.25, 3.5625, 2.3125], "texture": "#0"},
				"down": {"uv": [0, 1.25, 3.5625, 2.3125], "texture": "#0"}
			}
		},
		{
			"from": [9.25, 0.375, 5.5],
			"to": [10.125, 0.5, 6.5],
			"faces": {
				"north": {"uv": [0, 1.25, 3.9375, 2.3125], "texture": "#0"},
				"east": {"uv": [0, 1.25, 3.9375, 2.3125], "texture": "#0"},
				"south": {"uv": [0, 1.25, 3.9375, 2.3125], "texture": "#0"},
				"west": {"uv": [0, 1.25, 3.9375, 2.3125], "texture": "#0"},
				"up": {"uv": [0, 1.25, 3.9375, 2.3125], "texture": "#0"},
				"down": {"uv": [0, 1.25, 3.9375, 2.3125], "texture": "#0"}
			}
		},
		{
			"from": [5.875, 2.25, 5.5],
			"to": [6.75, 2.375, 6.5],
			"faces": {
				"north": {"uv": [0, 1.25, 3.9375, 2.3125], "texture": "#0"},
				"east": {"uv": [0, 1.25, 3.9375, 2.3125], "texture": "#0"},
				"south": {"uv": [0, 1.25, 3.9375, 2.3125], "texture": "#0"},
				"west": {"uv": [0, 1.25, 3.9375, 2.3125], "texture": "#0"},
				"up": {"uv": [0, 1.25, 3.9375, 2.3125], "texture": "#0"},
				"down": {"uv": [0, 1.25, 3.9375, 2.3125], "texture": "#0"}
			}
		},
		{
			"from": [9.25, 2.25, 5.5],
			"to": [10.125, 2.375, 6.5],
			"faces": {
				"north": {"uv": [0, 1.25, 3.9375, 2.3125], "texture": "#0"},
				"east": {"uv": [0, 1.25, 3.9375, 2.3125], "texture": "#0"},
				"south": {"uv": [0, 1.25, 3.9375, 2.3125], "texture": "#0"},
				"west": {"uv": [0, 1.25, 3.9375, 2.3125], "texture": "#0"},
				"up": {"uv": [0, 1.25, 3.9375, 2.3125], "texture": "#0"},
				"down": {"uv": [0, 1.25, 3.9375, 2.3125], "texture": "#0"}
			}
		},
		{
			"from": [9.25, 2.5, 5.5],
			"to": [10, 2.75, 6.5],
			"faces": {
				"north": {"uv": [0, 0, 3.875, 0.875], "texture": "#0"},
				"east": {"uv": [0, 0, 3.875, 0.875], "texture": "#0"},
				"south": {"uv": [0, 0, 3.875, 0.875], "texture": "#0"},
				"west": {"uv": [0, 0, 3.875, 0.875], "texture": "#0"},
				"up": {"uv": [0, 0, 3.875, 0.875], "texture": "#0"},
				"down": {"uv": [0, 0, 3.875, 0.875], "texture": "#0"}
			}
		},
		{
			"from": [9.25, 0, 5.5],
			"to": [10, 0.25, 6.5],
			"faces": {
				"north": {"uv": [0, 0, 3.875, 0.875], "texture": "#0"},
				"east": {"uv": [0, 0, 3.875, 0.875], "texture": "#0"},
				"south": {"uv": [0, 0, 3.875, 0.875], "texture": "#0"},
				"west": {"uv": [0, 0, 3.875, 0.875], "texture": "#0"},
				"up": {"uv": [0, 0, 3.875, 0.875], "texture": "#0"},
				"down": {"uv": [0, 0, 3.875, 0.875], "texture": "#0"}
			}
		},
		{
			"from": [6.75, 2.75, 5.5],
			"to": [9.25, 3, 7.25],
			"faces": {
				"north": {"uv": [8, 7.5, 15.125, 3.875], "texture": "#0"},
				"east": {"uv": [8, 7.5, 15.125, 3.875], "texture": "#0"},
				"south": {"uv": [8, 7.5, 15.125, 3.875], "texture": "#0"},
				"west": {"uv": [8, 7.5, 15.125, 3.875], "texture": "#0"},
				"up": {"uv": [7.5, 4.375, 12.125, 0], "rotation": 180, "texture": "#0"},
				"down": {"uv": [8, 7.5, 15.125, 3.875], "texture": "#0"}
			}
		},
		{
			"from": [6.75, 3, 5.5],
			"to": [7, 3.375, 7.25],
			"faces": {
				"north": {"uv": [7.75, 7.75, 16, 3.9375], "texture": "#0"},
				"east": {"uv": [7.75, 7.75, 16, 3.9375], "texture": "#0"},
				"south": {"uv": [7.75, 7.75, 16, 3.9375], "texture": "#0"},
				"west": {"uv": [7.75, 7.75, 16, 3.9375], "texture": "#0"},
				"up": {"uv": [7.75, 7.75, 16, 3.9375], "texture": "#0"},
				"down": {"uv": [7.75, 7.75, 16, 3.9375], "texture": "#0"}
			}
		},
		{
			"from": [6.75, 3.375, 5.75],
			"to": [7, 3.75, 7.25],
			"faces": {
				"north": {"uv": [8, 7.5, 15, 3.9375], "texture": "#0"},
				"east": {"uv": [8, 7.5, 15, 3.9375], "texture": "#0"},
				"south": {"uv": [8, 7.5, 15, 3.9375], "texture": "#0"},
				"west": {"uv": [8, 7.5, 15, 3.9375], "texture": "#0"},
				"up": {"uv": [8, 7.5, 15, 3.9375], "texture": "#0"},
				"down": {"uv": [8, 7.5, 15, 3.9375], "texture": "#0"}
			}
		},
		{
			"from": [6.75, 3.75, 6],
			"to": [7, 4.125, 7.25],
			"faces": {
				"north": {"uv": [8, 7.5, 14.875, 3.9375], "texture": "#0"},
				"east": {"uv": [8, 7.5, 14.875, 3.9375], "texture": "#0"},
				"south": {"uv": [8, 7.5, 14.875, 3.9375], "texture": "#0"},
				"west": {"uv": [8, 7.5, 14.875, 3.9375], "texture": "#0"},
				"up": {"uv": [8, 7.5, 14.875, 3.9375], "texture": "#0"},
				"down": {"uv": [8, 7.5, 14.875, 3.9375], "texture": "#0"}
			}
		},
		{
			"from": [9, 3.75, 6],
			"to": [9.25, 4.125, 7.25],
			"faces": {
				"north": {"uv": [8, 7.5, 14.875, 3.9375], "texture": "#0"},
				"east": {"uv": [8, 7.5, 14.875, 3.9375], "texture": "#0"},
				"south": {"uv": [8, 7.5, 14.875, 3.9375], "texture": "#0"},
				"west": {"uv": [8, 7.5, 14.875, 3.9375], "texture": "#0"},
				"up": {"uv": [8, 7.5, 14.875, 3.9375], "texture": "#0"},
				"down": {"uv": [8, 7.5, 14.875, 3.9375], "texture": "#0"}
			}
		},
		{
			"from": [9, 3.375, 5.75],
			"to": [9.25, 3.75, 7.25],
			"faces": {
				"north": {"uv": [8, 7.5, 15, 3.9375], "texture": "#0"},
				"east": {"uv": [8, 7.5, 15, 3.9375], "texture": "#0"},
				"south": {"uv": [8, 7.5, 15, 3.9375], "texture": "#0"},
				"west": {"uv": [8, 7.5, 15, 3.9375], "texture": "#0"},
				"up": {"uv": [8, 7.5, 15, 3.9375], "texture": "#0"},
				"down": {"uv": [8, 7.5, 15, 3.9375], "texture": "#0"}
			}
		},
		{
			"from": [9, 3, 5.5],
			"to": [9.25, 3.375, 7.25],
			"faces": {
				"north": {"uv": [8, 7.5, 15.125, 3.9375], "texture": "#0"},
				"east": {"uv": [8, 7.5, 15.125, 3.9375], "texture": "#0"},
				"south": {"uv": [8, 7.5, 15.125, 3.9375], "texture": "#0"},
				"west": {"uv": [8, 7.5, 15.125, 3.9375], "texture": "#0"},
				"up": {"uv": [8, 7.5, 15.125, 3.9375], "texture": "#0"},
				"down": {"uv": [8, 7.5, 15.125, 3.9375], "texture": "#0"}
			}
		},
		{
			"from": [7, 3, 7],
			"to": [9, 4.125, 7.25],
			"faces": {
				"north": {"uv": [8, 7.5, 14.375, 4.3125], "texture": "#0"},
				"east": {"uv": [8, 7.5, 14.375, 4.3125], "texture": "#0"},
				"south": {"uv": [8, 7.5, 14.375, 4.3125], "texture": "#0"},
				"west": {"uv": [8, 7.5, 14.375, 4.3125], "texture": "#0"},
				"up": {"uv": [8, 7.5, 14.375, 4.3125], "texture": "#0"},
				"down": {"uv": [8, 7.5, 14.375, 4.3125], "texture": "#0"}
			}
		},
		{
			"from": [5.3125, 0.75, 5.4375],
			"to": [5.6875, 2.0625, 7.25],
			"faces": {
				"north": {"uv": [15.40625, 0, 14.09375, 3.90625], "rotation": 180, "texture": "#0"},
				"east": {"uv": [16, 0, 15.4375, 3.90625], "rotation": 180, "texture": "#0"},
				"south": {"uv": [16, 0, 15.6875, 3.90625], "rotation": 180, "texture": "#0"},
				"west": {"uv": [16, 0, 15.6875, 3.90625], "rotation": 180, "texture": "#0"},
				"up": {"uv": [16, 0, 15.6875, 3.90625], "rotation": 180, "texture": "#0"},
				"down": {"uv": [16, 0, 15.6875, 3.90625], "rotation": 180, "texture": "#0"}
			}
		},
		{
			"from": [5.125, 0.8125, 5.4375],
			"to": [5.3125, 2, 7.25],
			"faces": {
				"north": {"uv": [15.65625, 0, 16, 3.84375], "texture": "#0"},
				"east": {"uv": [15.65625, 0, 16, 3.84375], "texture": "#0"},
				"south": {"uv": [15.65625, 0, 16, 3.84375], "texture": "#0"},
				"west": {"uv": [15.65625, 0, 16, 3.84375], "texture": "#0"},
				"up": {"uv": [15.65625, 0, 16, 3.84375], "texture": "#0"},
				"down": {"uv": [15.65625, 0, 16, 3.84375], "texture": "#0"}
			}
		},
		{
			"from": [10.6875, 0.8125, 5.4375],
			"to": [10.875, 2, 7.25],
			"faces": {
				"north": {"uv": [12, 0, 12.40625, 4.09375], "texture": "#0"},
				"east": {"uv": [12, 0, 12.40625, 4.09375], "texture": "#0"},
				"south": {"uv": [12, 0, 12.40625, 4.09375], "texture": "#0"},
				"west": {"uv": [12, 0, 12.40625, 4.09375], "texture": "#0"},
				"up": {"uv": [12, 0, 12.40625, 4.09375], "texture": "#0"},
				"down": {"uv": [12, 0, 12.40625, 4.09375], "texture": "#0"}
			}
		},
		{
			"from": [10.3125, 0.75, 5.4375],
			"to": [10.6875, 2.0625, 7.25],
			"faces": {
				"north": {"uv": [12.5, 0, 13.9375, 3.90625], "texture": "#0"},
				"east": {"uv": [12, 0, 12.4375, 3.90625], "texture": "#0"},
				"south": {"uv": [12, 0, 12.4375, 3.90625], "texture": "#0"},
				"west": {"uv": [12, 0, 12.4375, 3.90625], "texture": "#0"},
				"up": {"uv": [12, 0, 12.4375, 3.90625], "texture": "#0"},
				"down": {"uv": [12, 0, 12.4375, 3.90625], "texture": "#0"}
			}
		}
	],
	"display": {
		"thirdperson_righthand": {
			"rotation": [0, 138, 0],
			"translation": [0.5, 8.25, -0.75]
		},
		"thirdperson_lefthand": {
			"rotation": [0, 138, 0],
			"translation": [0.5, 8.25, -0.75]
		},
		"firstperson_righthand": {
			"rotation": [0, 132, 0],
			"translation": [0.5, 10, 1.25]
		},
		"firstperson_lefthand": {
			"rotation": [0, 132, 0],
			"translation": [0.5, 10, 1.25]
		},
		"ground": {
			"rotation": [90, 0, 0],
			"translation": [0, -5, 11.25],
			"scale": [1.75, 1.75, 1.75]
		},
		"gui": {
			"rotation": [0, -180, 0],
			"translation": [0, 12.5, 0],
			"scale": [2.15, 2.15, 2.15]
		},
		"fixed": {
			"translation": [0, 15, 1.75],
			"scale": [2.5, 2.5, 2.5]
		}
	},
	"groups": [
		{
			"name": "screen",
			"origin": [8, 8, 8],
			"color": 0,
			"nbt": "{}",
			"armAnimationEnabled": false,
			"children": [0]
		},
		{
			"name": "screenborder",
			"origin": [8, 8, 8],
			"color": 0,
			"nbt": "{}",
			"armAnimationEnabled": false,
			"children": [1, 2, 3, 4, 5, 6, 7, 8]
		},
		{
			"name": "body",
			"origin": [8, 8, 8],
			"color": 0,
			"nbt": "{}",
			"armAnimationEnabled": false,
			"children": [9, 10, 11, 12, 13, 14, 15]
		},
		{
			"name": "muscles",
			"origin": [8, 8, 8],
			"color": 0,
			"nbt": "{}",
			"armAnimationEnabled": false,
			"children": [16, 17, 18, 19, 20, 21, 22, 23, 24, 25, 26, 27, 28, 29, 30, 31, 32, 33, 34, 35, 36, 37, 38, 39, 40, 41, 42, 43]
		},
		{
			"name": "stamper",
			"origin": [8, 8, 8],
			"color": 0,
			"nbt": "{}",
			"armAnimationEnabled": false,
			"children": [44, 45, 46, 47, 48, 49, 50, 51]
		},
		{
			"name": "knocks",
			"origin": [8, 8, 8],
			"color": 0,
			"nbt": "{}",
			"armAnimationEnabled": false,
			"children": [52, 53, 54, 55]
		}
	]
}